\relax 
\providecommand\hyper@newdestlabel[2]{}
\providecommand\HyperFirstAtBeginDocument{\AtBeginDocument}
\HyperFirstAtBeginDocument{\ifx\hyper@anchor\@undefined
\global\let\oldcontentsline\contentsline
\gdef\contentsline#1#2#3#4{\oldcontentsline{#1}{#2}{#3}}
\global\let\oldnewlabel\newlabel
\gdef\newlabel#1#2{\newlabelxx{#1}#2}
\gdef\newlabelxx#1#2#3#4#5#6{\oldnewlabel{#1}{{#2}{#3}}}
\AtEndDocument{\ifx\hyper@anchor\@undefined
\let\contentsline\oldcontentsline
\let\newlabel\oldnewlabel
\fi}
\fi}
\global\let\hyper@last\relax 
\gdef\HyperFirstAtBeginDocument#1{#1}
\providecommand\HyField@AuxAddToFields[1]{}
\providecommand\HyField@AuxAddToCoFields[2]{}
\@writefile{toc}{\contentsline {section}{\numberline {1}Problema e strategia di risoluzione}{1}{section.1}}
\@writefile{toc}{\contentsline {subsection}{\numberline {1.1}Recupero dati, allineamento sequenze, lettura}{1}{subsection.1.1}}
\@writefile{toc}{\contentsline {subsection}{\numberline {1.2}Definizione della metrica e del \textit  {linkage criterion}}{2}{subsection.1.2}}
\@writefile{toc}{\contentsline {subsection}{\numberline {1.3}Strategia di risoluzione}{3}{subsection.1.3}}
\@writefile{toc}{\contentsline {section}{\numberline {2}Fasi salienti e problemi riscontrati}{3}{section.2}}
\@writefile{toc}{\contentsline {subsection}{\numberline {2.1}Sottografi completi intrapartizione}{4}{subsection.2.1}}
\@writefile{toc}{\contentsline {subsection}{\numberline {2.2}Sottografi completi bipartiti}{5}{subsection.2.2}}
\bibcite{HPC-Clust}{1}
\@writefile{toc}{\contentsline {subsection}{\numberline {2.3}Fase di reduce}{6}{subsection.2.3}}
\@writefile{toc}{\contentsline {section}{\numberline {3}Conclusioni e considerazioni}{6}{section.3}}
\bibcite{hendrix}{2}
\bibcite{jin}{3}
\bibcite{guida}{4}
